name,href,yes,no
Льовочкіна Юлія Володимирівна,https://itd.rada.gov.ua/mps/info/page/11109,10,17
Єфімов Максим Вікторович,https://itd.rada.gov.ua/mps/info/page/18090,11,16
Столар Вадим Михайлович,https://itd.rada.gov.ua/mps/info/page/13687,11,16
Гетманцев Данило Олександрович,https://itd.rada.gov.ua/mps/info/page/21023,12,15
Шенцев Дмитро Олексійович,https://itd.rada.gov.ua/mps/info/page/8885,12,15
Сольський Микола Тарасович,https://itd.rada.gov.ua/mps/info/page/21181,12,15
Кісільов Ігор Петрович,https://itd.rada.gov.ua/mps/info/page/13942,14,13
Солод Юрій Васильович,https://itd.rada.gov.ua/mps/info/page/18135,14,13
Деркач Андрій Леонідович,https://itd.rada.gov.ua/mps/info/page/2284,14,13
Тарута Сергій Олексійович,https://itd.rada.gov.ua/mps/info/page/18140,14,13
Данілов Віталій Богданович,https://itd.rada.gov.ua/mps/info/page/11147,15,12
Борт Віталій Петрович,https://itd.rada.gov.ua/mps/info/page/8731,16,11
Порошенко Петро Олексійович,https://itd.rada.gov.ua/mps/info/page/2273,15,11
Беленюк Жан Венсанович,https://itd.rada.gov.ua/mps/info/page/20980,17,10
Абрамович Ігор Олександрович,https://itd.rada.gov.ua/mps/info/page/20964,17,10
Кузьмін Ренат Равелійович,https://itd.rada.gov.ua/mps/info/page/21170,18,9
Арахамія Давид Георгійович,https://itd.rada.gov.ua/mps/info/page/20969,18,9
Рабінович Вадим Зіновійович,https://itd.rada.gov.ua/mps/info/page/18032,18,9
Гончаренко Олексій Олексійович,https://itd.rada.gov.ua/mps/info/page/17984,18,9
Одарченко Андрій Миколайович,https://itd.rada.gov.ua/mps/info/page/21245,19,8
Герус Андрій Михайлович,https://itd.rada.gov.ua/mps/info/page/21022,19,8
Лабунська Анжеліка Вікторівна,https://itd.rada.gov.ua/mps/info/page/8806,19,8
Вацак Геннадій Анатолійович,https://itd.rada.gov.ua/mps/info/page/21006,19,8
Умєров Рустем Енверович,https://itd.rada.gov.ua/mps/info/page/21085,20,7
Кальцев Володимир Федорович,https://itd.rada.gov.ua/mps/info/page/12612,20,7
Устінова Олександра Юріївна,https://itd.rada.gov.ua/mps/info/page/21092,20,7
Буймістер Людмила Анатоліївна,https://itd.rada.gov.ua/mps/info/page/20994,18,7
Ісаєнко Дмитро Валерійович,https://itd.rada.gov.ua/mps/info/page/21114,20,7
Наталуха Дмитро Андрійович,https://itd.rada.gov.ua/mps/info/page/21257,21,6
Бабенко Микола Вікторович,https://itd.rada.gov.ua/mps/info/page/20974,21,6
Корнієнко Олександр Сергійович,https://itd.rada.gov.ua/mps/info/page/21153,21,6
Лопушанський Андрій Ярославович,https://itd.rada.gov.ua/mps/info/page/8815,16,6
Бєлькова Ольга Валентинівна,https://itd.rada.gov.ua/mps/info/page/15684,21,6
Требушкін Руслан Валерійович,https://itd.rada.gov.ua/mps/info/page/21119,21,6
Козак Тарас Романович,https://itd.rada.gov.ua/mps/info/page/18034,21,6
Гурін Дмитро Олександрович,https://itd.rada.gov.ua/mps/info/page/21033,21,6
Довгий Олесь Станіславович,https://itd.rada.gov.ua/mps/info/page/18086,21,6
Лабазюк Сергій Петрович,https://itd.rada.gov.ua/mps/info/page/15824,21,6
Фельдман Олександр Борисович,https://itd.rada.gov.ua/mps/info/page/5542,21,6
Кузьміних Сергій Володимирович,https://itd.rada.gov.ua/mps/info/page/21171,22,5
Джемілєв Мустафа ,https://itd.rada.gov.ua/mps/info/page/2394,22,5
Немиря Григорій Михайлович,https://itd.rada.gov.ua/mps/info/page/8830,21,5
Пузанов Олександр Геннадійович,https://itd.rada.gov.ua/mps/info/page/21277,22,5
Мороз Володимир Вікторович,https://itd.rada.gov.ua/mps/info/page/21243,22,5
Нагорняк Сергій Володимирович,https://itd.rada.gov.ua/mps/info/page/21255,22,5
Загоруйко Аліна Леонідівна,https://itd.rada.gov.ua/mps/info/page/10826,22,5
Кучеренко Олексій Юрійович,https://itd.rada.gov.ua/mps/info/page/2287,22,5
Забуранна Леся Валентинівна,https://itd.rada.gov.ua/mps/info/page/21047,22,4
Стріхарський Андрій Петрович,https://itd.rada.gov.ua/mps/info/page/21222,23,4
Пономарьов Олександр Сергійович,https://itd.rada.gov.ua/mps/info/page/15760,23,4
Королевська Наталія Юріївна,https://itd.rada.gov.ua/mps/info/page/8693,21,4
Княжицький Микола Леонідович,https://itd.rada.gov.ua/mps/info/page/15645,23,4
Микиша Дмитро Сергійович,https://itd.rada.gov.ua/mps/info/page/21233,23,4
Шкрум Альона Іванівна,https://itd.rada.gov.ua/mps/info/page/16532,17,4
Кіт Андрій Богданович,https://itd.rada.gov.ua/mps/info/page/18094,23,4
Холодов Андрій Іванович,https://itd.rada.gov.ua/mps/info/page/21081,23,4
Ларін Сергій Миколайович,https://itd.rada.gov.ua/mps/info/page/2179,11,4
Василенко Леся Володимирівна,https://itd.rada.gov.ua/mps/info/page/21000,17,4
Бондарєв Костянтин Анатолійович,https://itd.rada.gov.ua/mps/info/page/11153,23,4
Петруняк Євген Васильович,https://itd.rada.gov.ua/mps/info/page/21266,23,4
Бондар Ганна Вячеславівна,https://itd.rada.gov.ua/mps/info/page/20988,23,4
Кубраков Олександр Миколайович,https://itd.rada.gov.ua/mps/info/page/21167,24,3
Радуцький Михайло Борисович,https://itd.rada.gov.ua/mps/info/page/21204,24,3
Красов Олексій Ігорович,https://itd.rada.gov.ua/mps/info/page/21161,24,3
Качура Олександр Анатолійович,https://itd.rada.gov.ua/mps/info/page/21127,24,3
Качний Олександр Сталіноленович,https://itd.rada.gov.ua/mps/info/page/17457,24,3
Іонова Марія Миколаївна,https://itd.rada.gov.ua/mps/info/page/15672,24,3
Ніколаєнко Андрій Іванович,https://itd.rada.gov.ua/mps/info/page/21262,24,3
Зуб Валерій Олексійович,https://itd.rada.gov.ua/mps/info/page/21107,24,3
Драбовський Анатолій Григорович,https://itd.rada.gov.ua/mps/info/page/21039,24,3
Діденко Юлія Олександрівна,https://itd.rada.gov.ua/mps/info/page/21036,24,3
Шпенов Дмитро Юрійович,https://itd.rada.gov.ua/mps/info/page/11096,19,3
Стернійчук Валерій Олександрович,https://itd.rada.gov.ua/mps/info/page/21183,23,3
Горват Роберт Іванович,https://itd.rada.gov.ua/mps/info/page/18075,24,3
Абдуллін Олександр Рафкатович,https://itd.rada.gov.ua/mps/info/page/2524,24,3
Юрченко Олександр Миколайович,https://itd.rada.gov.ua/mps/info/page/21063,24,3
Булах Лада Валентинівна,https://itd.rada.gov.ua/mps/info/page/20995,24,3
Бондар Віктор Васильович,https://itd.rada.gov.ua/mps/info/page/15826,24,3
Льовочкін Сергій Володимирович,https://itd.rada.gov.ua/mps/info/page/7718,24,3
Безгін Віталій Юрійович,https://itd.rada.gov.ua/mps/info/page/20978,24,3
Аліксійчук Олександр Васильович,https://itd.rada.gov.ua/mps/info/page/20965,24,3
Галушко Микола Леонідович,https://itd.rada.gov.ua/mps/info/page/21018,24,3
Струневич Вадим Олегович,https://itd.rada.gov.ua/mps/info/page/21224,25,2
Магера Сергій Васильович,https://itd.rada.gov.ua/mps/info/page/21196,25,2
Совсун Інна Романівна,https://itd.rada.gov.ua/mps/info/page/21179,25,2
Медведчук Віктор Володимирович,https://itd.rada.gov.ua/mps/info/page/1934,25,2
Матусевич Олександр Борисович,https://itd.rada.gov.ua/mps/info/page/21223,25,2
Горенюк Олександр Олександрович,https://itd.rada.gov.ua/mps/info/page/21026,25,2
Волошин Олег Анатолійович,https://itd.rada.gov.ua/mps/info/page/21013,25,2
Совгиря Ольга Володимирівна,https://itd.rada.gov.ua/mps/info/page/21178,25,2
Волинець Михайло Якович,https://itd.rada.gov.ua/mps/info/page/5417,25,2
Колихаєв Ігор Вікторович,https://itd.rada.gov.ua/mps/info/page/21143,25,2
Павліш Павло Васильович,https://itd.rada.gov.ua/mps/info/page/21216,25,2
Парубій Андрій Володимирович,https://itd.rada.gov.ua/mps/info/page/11584,25,2
Божик Валерій Іванович,https://itd.rada.gov.ua/mps/info/page/20987,25,2
Богуцька Єлізавета Петрівна,https://itd.rada.gov.ua/mps/info/page/20986,25,2
Богданець Андрій Володимирович,https://itd.rada.gov.ua/mps/info/page/20985,25,2
Кузнєцов Олексій Олександрович,https://itd.rada.gov.ua/mps/info/page/21169,25,2
Боблях Андрій Ростиславович,https://itd.rada.gov.ua/mps/info/page/20983,25,2
Білозір Лариса Миколаївна,https://itd.rada.gov.ua/mps/info/page/20982,25,2
Колюх Валерій Вікторович,https://itd.rada.gov.ua/mps/info/page/21150,25,2
Яковенко Євген Геннадійович,https://itd.rada.gov.ua/mps/info/page/21057,25,2
Трухін Олександр Миколайович,https://itd.rada.gov.ua/mps/info/page/21201,25,2
Фролов Павло Валерійович,https://itd.rada.gov.ua/mps/info/page/8671,21,2
Забродський Михайло Віталійович,https://itd.rada.gov.ua/mps/info/page/21046,25,2
Луценко Ірина Степанівна,https://itd.rada.gov.ua/mps/info/page/15647,8,2
Гнатенко Валерій Сергійович,https://itd.rada.gov.ua/mps/info/page/21024,25,2
Балога Віктор Іванович,https://itd.rada.gov.ua/mps/info/page/5566,25,2
Ткаченко Олександр Владиславович,https://itd.rada.gov.ua/mps/info/page/21111,25,2
Шахов Сергій Володимирович,https://itd.rada.gov.ua/mps/info/page/20106,25,2
Поляк Владіслав Миколайович,https://itd.rada.gov.ua/mps/info/page/21272,25,2
Чийгоз Ахтем Зейтуллайович,https://itd.rada.gov.ua/mps/info/page/21071,25,2
Костенко Роман Васильович,https://itd.rada.gov.ua/mps/info/page/21155,25,2
Макаров Олег Анатолійович,https://itd.rada.gov.ua/mps/info/page/21200,25,2
Скороход Анна Костянтинівна,https://itd.rada.gov.ua/mps/info/page/21147,25,2
Ар'єв Володимир Ігорович,https://itd.rada.gov.ua/mps/info/page/11118,21,2
Яценко Антон Володимирович,https://itd.rada.gov.ua/mps/info/page/4339,25,2
Урбанський Анатолій Ігорович,https://itd.rada.gov.ua/mps/info/page/21087,14,2
Литвиненко Сергій Анатолійович,https://itd.rada.gov.ua/mps/info/page/21189,25,2
Янченко Галина Ігорівна,https://itd.rada.gov.ua/mps/info/page/21055,25,2
Скорик Микола Леонідович,https://itd.rada.gov.ua/mps/info/page/18033,25,2
Шуляк Олена Олексіївна,https://itd.rada.gov.ua/mps/info/page/21075,25,2
Сюмар Вікторія Петрівна,https://itd.rada.gov.ua/mps/info/page/17948,25,2
Кожем'якін Андрій Анатолійович,https://itd.rada.gov.ua/mps/info/page/8786,24,2
Івченко Вадим Євгенович,https://itd.rada.gov.ua/mps/info/page/18055,25,2
Івахів Степан Петрович,https://itd.rada.gov.ua/mps/info/page/15733,19,2
Палиця Ігор Петрович,https://itd.rada.gov.ua/mps/info/page/11133,25,2
Іванов Володимир Ілліч,https://itd.rada.gov.ua/mps/info/page/21112,25,2
Мінько Сергій Анатолійович,https://itd.rada.gov.ua/mps/info/page/21237,25,2
Шевченко Євгеній Володимирович,https://itd.rada.gov.ua/mps/info/page/21062,25,2
Саврасов Максим Віталійович,https://itd.rada.gov.ua/mps/info/page/19858,25,2
Клименко Юлія Леонідівна,https://itd.rada.gov.ua/mps/info/page/21134,24,2
Магомедов Муса Сергоєвич,https://itd.rada.gov.ua/mps/info/page/21197,25,2
Мисягін Юрій Михайлович,https://itd.rada.gov.ua/mps/info/page/21234,25,2
Рущишин Ярослав Іванович,https://itd.rada.gov.ua/mps/info/page/21213,25,2
Пивоваров Євген Павлович,https://itd.rada.gov.ua/mps/info/page/21267,26,1
Брагар Євгеній Вадимович,https://itd.rada.gov.ua/mps/info/page/20992,26,1
Колебошин Сергій Валерійович,https://itd.rada.gov.ua/mps/info/page/21141,26,1
Бородін Владислав Валерійович,https://itd.rada.gov.ua/mps/info/page/20991,26,1
Циба Тетяна Вікторівна,https://itd.rada.gov.ua/mps/info/page/12619,24,1
Підласа Роксолана Андріївна,https://itd.rada.gov.ua/mps/info/page/21269,26,1
Бондаренко Олег Володимирович,https://itd.rada.gov.ua/mps/info/page/20989,26,1
Люшняк Микола Володимирович,https://itd.rada.gov.ua/mps/info/page/18117,26,1
Кучер Микола Іванович,https://itd.rada.gov.ua/mps/info/page/18112,26,1
Синютка Олег Михайлович,https://itd.rada.gov.ua/mps/info/page/21145,26,1
Третьякова Галина Миколаївна,https://itd.rada.gov.ua/mps/info/page/21121,26,1
Березін Максим Юрійович,https://itd.rada.gov.ua/mps/info/page/20981,26,1
Рубльов Вячеслав Володимирович,https://itd.rada.gov.ua/mps/info/page/21208,26,1
Семінський Олег Валерійович,https://itd.rada.gov.ua/mps/info/page/21100,26,1
Северин Сергій Сергійович,https://itd.rada.gov.ua/mps/info/page/11432,26,1
Салійчук Олександр В'ячеславович,https://itd.rada.gov.ua/mps/info/page/21098,26,1
Потураєв Микита Русланович,https://itd.rada.gov.ua/mps/info/page/21274,22,1
Христенко Федір Володимирович,https://itd.rada.gov.ua/mps/info/page/21083,26,1
Арістов Юрій Юрійович,https://itd.rada.gov.ua/mps/info/page/20970,26,1
Кабанов Олександр Євгенійович,https://itd.rada.gov.ua/mps/info/page/21115,26,1
Іонушас Сергій Костянтинович,https://itd.rada.gov.ua/mps/info/page/21113,26,1
Аллахвердієва Ірина Валеріївна,https://itd.rada.gov.ua/mps/info/page/20966,26,1
Іванчук Андрій Володимирович,https://itd.rada.gov.ua/mps/info/page/15654,26,1
Южаніна Ніна Петрівна,https://itd.rada.gov.ua/mps/info/page/17980,26,1
Сухов Олександр Сергійович,https://itd.rada.gov.ua/mps/info/page/21227,26,1
Зінкевич Яна Вадимівна,https://itd.rada.gov.ua/mps/info/page/21106,26,1
Ясько Єлизавета Олексіївна,https://itd.rada.gov.ua/mps/info/page/21053,24,1
Новинський Вадим Владиславович,https://itd.rada.gov.ua/mps/info/page/17108,26,1
Негулевський Ігор Петрович,https://itd.rada.gov.ua/mps/info/page/21258,26,1
Нальотов Дмитро Олександрович,https://itd.rada.gov.ua/mps/info/page/21256,26,1
Тарасенко Тарас Петрович,https://itd.rada.gov.ua/mps/info/page/21086,26,1
Завітневич Олександр Михайлович,https://itd.rada.gov.ua/mps/info/page/21048,14,1
Тарасов Олег Сергійович,https://itd.rada.gov.ua/mps/info/page/21088,26,1
Заблоцький Мар'ян Богданович,https://itd.rada.gov.ua/mps/info/page/21045,26,1
Кива Ілля Володимирович,https://itd.rada.gov.ua/mps/info/page/21128,26,1
Жмеренецький Олексій Сергійович,https://itd.rada.gov.ua/mps/info/page/15304,26,1
Железняк Ярослав Іванович,https://itd.rada.gov.ua/mps/info/page/21043,26,1
Тимофійчук Володимир Ярославович,https://itd.rada.gov.ua/mps/info/page/21089,26,1
Павленко Юрій Олексійович,https://itd.rada.gov.ua/mps/info/page/5380,26,1
М'ялик Віктор Ничипорович,https://itd.rada.gov.ua/mps/info/page/21252,26,1
Дубнов Артем Васильович,https://itd.rada.gov.ua/mps/info/page/21041,21,1
Чорний Віктор Іванович,https://itd.rada.gov.ua/mps/info/page/8314,26,1
Дубінський Олександр Анатолійович,https://itd.rada.gov.ua/mps/info/page/21040,26,1
Дубіль Валерій Олександрович,https://itd.rada.gov.ua/mps/info/page/12272,26,1
Мулик Роман Миронович,https://itd.rada.gov.ua/mps/info/page/21248,26,1
Халімон Павло Віталійович,https://itd.rada.gov.ua/mps/info/page/21078,26,1
Мотовиловець Андрій Вікторович,https://itd.rada.gov.ua/mps/info/page/21244,26,1
Кицак Богдан Вікторович,https://itd.rada.gov.ua/mps/info/page/21131,26,1
Тимошенко Юлія Володимирівна,https://itd.rada.gov.ua/mps/info/page/1792,24,1
Тищенко Микола Миколайович,https://itd.rada.gov.ua/mps/info/page/21091,26,1
Дануца Олександр Анатолійович,https://itd.rada.gov.ua/mps/info/page/21034,26,1
Красносільська Анастасія Олегівна,https://itd.rada.gov.ua/mps/info/page/21160,26,1
Молоток Ігор Федорович,https://itd.rada.gov.ua/mps/info/page/15810,26,1
Пуртова Анна Анатоліївна,https://itd.rada.gov.ua/mps/info/page/21279,26,1
Грищук Роман Павлович,https://itd.rada.gov.ua/mps/info/page/21031,26,1
Чернєв Єгор Володимирович,https://itd.rada.gov.ua/mps/info/page/21068,24,1
Гришина Юлія Миколаївна,https://itd.rada.gov.ua/mps/info/page/21327,24,1
Шаповалов Юрій Анатолійович,https://itd.rada.gov.ua/mps/info/page/15803,20,1
Гриб Вікторія Олександрівна,https://itd.rada.gov.ua/mps/info/page/21027,26,1
Фріз Ірина Василівна,https://itd.rada.gov.ua/mps/info/page/9684,26,1
Ткаченко Максим Миколайович,https://itd.rada.gov.ua/mps/info/page/21109,26,1
Ткаченко Олександр Михайлович,https://itd.rada.gov.ua/mps/info/page/21116,26,1
Герман Денис Вадимович,https://itd.rada.gov.ua/mps/info/page/21021,26,1
Соломчук Дмитро Вікторович,https://itd.rada.gov.ua/mps/info/page/21180,26,1
Геращенко Ірина Володимирівна,https://itd.rada.gov.ua/mps/info/page/11121,26,1
Ковальов Олексій Іванович,https://itd.rada.gov.ua/mps/info/page/21140,26,1
Мейдич Олег Леонідович,https://itd.rada.gov.ua/mps/info/page/21230,26,1
Мезенцева Марія Сергіївна,https://itd.rada.gov.ua/mps/info/page/21228,22,1
Воронов Володимир Анатолійович,https://itd.rada.gov.ua/mps/info/page/21014,22,1
Сова Олександр Георгійович,https://itd.rada.gov.ua/mps/info/page/21177,26,1
Вінтоняк Олена Василівна,https://itd.rada.gov.ua/mps/info/page/21011,26,1
Мамоян Суто Чолоєвич,https://itd.rada.gov.ua/mps/info/page/21217,26,1
Мамка Григорій Миколайович,https://itd.rada.gov.ua/mps/info/page/21203,26,1
Величкович Микола Романович,https://itd.rada.gov.ua/mps/info/page/17961,26,1
Ватрас Володимир Антонович,https://itd.rada.gov.ua/mps/info/page/21005,26,1
Василів Ігор Володимирович,https://itd.rada.gov.ua/mps/info/page/21001,26,1
Василевська-Смаглюк Ольга Михайлівна,https://itd.rada.gov.ua/mps/info/page/20999,26,1
Вакарчук Святослав Іванович,https://itd.rada.gov.ua/mps/info/page/11120,20,1
Вагнєр Вікторія Олександрівна,https://itd.rada.gov.ua/mps/info/page/20998,26,1
Бурміч Анатолій Петрович,https://itd.rada.gov.ua/mps/info/page/20997,26,1
Рудик Кіра Олександрівна,https://itd.rada.gov.ua/mps/info/page/21209,26,1
Калаур Іван Романович,https://itd.rada.gov.ua/mps/info/page/21326,18,1
Яцик Юлія Григорівна,https://itd.rada.gov.ua/mps/info/page/21052,27,0
Яременко Богдан Васильович,https://itd.rada.gov.ua/mps/info/page/21054,27,0
Яковлєва Неллі Іллівна,https://itd.rada.gov.ua/mps/info/page/21056,27,0
Якименко Павло Віталійович,https://itd.rada.gov.ua/mps/info/page/21058,23,0
Юрчишин Ярослав Романович,https://itd.rada.gov.ua/mps/info/page/15432,27,0
Юрчишин Петро Васильович,https://itd.rada.gov.ua/mps/info/page/18150,27,0
Юраш Святослав Андрійович,https://itd.rada.gov.ua/mps/info/page/21061,27,0
Юнаков Іван Сергійович,https://itd.rada.gov.ua/mps/info/page/21060,27,0
Шуфрич Нестор Іванович,https://itd.rada.gov.ua/mps/info/page/2274,27,0
Штепа Сергій Сергійович,https://itd.rada.gov.ua/mps/info/page/21073,27,0
Шпак Любов Олександрівна,https://itd.rada.gov.ua/mps/info/page/21070,27,0
Шол Маргарита Віталіївна,https://itd.rada.gov.ua/mps/info/page/21067,27,0
Шипайло Остап Ігорович,https://itd.rada.gov.ua/mps/info/page/21065,27,0
Шинкаренко Іван Анатолійович,https://itd.rada.gov.ua/mps/info/page/21064,27,0
Швець Сергій Федорович,https://itd.rada.gov.ua/mps/info/page/21059,27,0
Чорноморов Артем Олегович,https://itd.rada.gov.ua/mps/info/page/21074,27,0
Чорний Дмитро Сергійович,https://itd.rada.gov.ua/mps/info/page/21072,27,0
Чернявський Степан Миколайович,https://itd.rada.gov.ua/mps/info/page/21069,27,0
Чайківський Іван Адамович,https://itd.rada.gov.ua/mps/info/page/21066,27,0
Цимбалюк Михайло Михайлович,https://itd.rada.gov.ua/mps/info/page/21077,27,0
Цабаль Володимир Володимирович,https://itd.rada.gov.ua/mps/info/page/21076,27,0
Хоменко Олена Вікторівна,https://itd.rada.gov.ua/mps/info/page/21281,27,0
Фріс Ігор Павлович,https://itd.rada.gov.ua/mps/info/page/21084,27,0
Федієнко Олександр Павлович,https://itd.rada.gov.ua/mps/info/page/21080,27,0
Федина Софія Романівна,https://itd.rada.gov.ua/mps/info/page/21079,27,0
Устенко Олексій Олегович,https://itd.rada.gov.ua/mps/info/page/21090,27,0
Торохтій Богдан Григорович,https://itd.rada.gov.ua/mps/info/page/21118,27,0
Тістик Ростислав Ярославович,https://itd.rada.gov.ua/mps/info/page/21093,22,0
Сушко Павло Миколайович,https://itd.rada.gov.ua/mps/info/page/21229,27,0
Суркіс Григорій Михайлович,https://itd.rada.gov.ua/mps/info/page/2272,27,0
Стефанчук Руслан Олексійович,https://itd.rada.gov.ua/mps/info/page/21211,27,0
Стефанчук Микола Олексійович,https://itd.rada.gov.ua/mps/info/page/21210,27,0
Стефанишина Ольга Анатоліївна,https://itd.rada.gov.ua/mps/info/page/21184,27,0
Соха Роман Васильович,https://itd.rada.gov.ua/mps/info/page/21182,27,0
Соболєв Сергій Владиславович,https://itd.rada.gov.ua/mps/info/page/386,19,0
Славицька Антоніна Керимівна,https://itd.rada.gov.ua/mps/info/page/21148,27,0
Скічко Олександр Олександрович,https://itd.rada.gov.ua/mps/info/page/21146,27,0
Саламаха Орест Ігорович,https://itd.rada.gov.ua/mps/info/page/21097,27,0
Саладуха Ольга Валеріївна,https://itd.rada.gov.ua/mps/info/page/21096,21,0
Савчук Оксана Василівна,https://itd.rada.gov.ua/mps/info/page/21095,27,0
Савченко Ольга Станіславівна,https://itd.rada.gov.ua/mps/info/page/21094,27,0
Рябуха Тетяна Василівна,https://itd.rada.gov.ua/mps/info/page/21214,27,0
Руденко Ольга Сергіївна,https://itd.rada.gov.ua/mps/info/page/21328,19,0
Рєпіна Елла Анатоліївна,https://itd.rada.gov.ua/mps/info/page/21207,27,0
Разумков Дмитро Олександрович,https://itd.rada.gov.ua/mps/info/page/21205,27,0
Пушкаренко Арсеній Михайлович,https://itd.rada.gov.ua/mps/info/page/20772,27,0
Пузійчук Андрій Вікторович,https://itd.rada.gov.ua/mps/info/page/21278,27,0
Прощук Едуард Петрович,https://itd.rada.gov.ua/mps/info/page/21276,23,0
Приходько Наталія Ігорівна,https://itd.rada.gov.ua/mps/info/page/13764,27,0
Приходько Борис Вікторович,https://itd.rada.gov.ua/mps/info/page/21282,27,0
Припутень Дмитро Сергійович,https://itd.rada.gov.ua/mps/info/page/21275,27,0
Поляков Антон Едуардович,https://itd.rada.gov.ua/mps/info/page/21273,27,0
Подгорна Вікторія Валентинівна,https://itd.rada.gov.ua/mps/info/page/21271,27,0
Плачкова Тетяна Михайлівна,https://itd.rada.gov.ua/mps/info/page/17473,27,0
Піпа Наталія Романівна,https://itd.rada.gov.ua/mps/info/page/21270,27,0
Петьовка Василь Васильович,https://itd.rada.gov.ua/mps/info/page/11131,27,0
Перебийніс Максим Вікторович,https://itd.rada.gov.ua/mps/info/page/21265,27,0
Пашковський Максим Ігорович,https://itd.rada.gov.ua/mps/info/page/21253,27,0
Пасічний Олександр Станіславович,https://itd.rada.gov.ua/mps/info/page/21251,27,0
Папієв Михайло Миколайович,https://itd.rada.gov.ua/mps/info/page/5464,27,0
Павлюк Максим Васильович,https://itd.rada.gov.ua/mps/info/page/21240,27,0
Павловський Петро Іванович,https://itd.rada.gov.ua/mps/info/page/21235,27,0
Павленко Ростислав Миколайович,https://itd.rada.gov.ua/mps/info/page/15687,27,0
Остапенко Анатолій Дмитрович,https://itd.rada.gov.ua/mps/info/page/21324,25,0
Осадчук Андрій Петрович,https://itd.rada.gov.ua/mps/info/page/21249,27,0
Овчинникова Юлія Юріївна,https://itd.rada.gov.ua/mps/info/page/21242,27,0
Новіков Михайло Миколайович,https://itd.rada.gov.ua/mps/info/page/21263,27,0
Німченко Василь Іванович,https://itd.rada.gov.ua/mps/info/page/18037,27,0
Нікітіна Марина Вікторівна,https://itd.rada.gov.ua/mps/info/page/21261,27,0
Нестеренко Кирилл Олександрович,https://itd.rada.gov.ua/mps/info/page/21260,27,0
Неклюдов Владлен Михайлович,https://itd.rada.gov.ua/mps/info/page/21259,27,0
Наливайченко Валентин Олександрович,https://itd.rada.gov.ua/mps/info/page/15666,27,0
Нагаєвський Артем Сергійович,https://itd.rada.gov.ua/mps/info/page/21254,27,0
Мурдій Ігор Юрійович,https://itd.rada.gov.ua/mps/info/page/21250,27,0
Мошенець Олена Володимирівна,https://itd.rada.gov.ua/mps/info/page/21246,27,0
Монастирський Денис Анатолійович,https://itd.rada.gov.ua/mps/info/page/21241,27,0
Мокан Василь Іванович,https://itd.rada.gov.ua/mps/info/page/21239,27,0
Мовчан Олексій Васильович,https://itd.rada.gov.ua/mps/info/page/21238,27,0
Михайлюк Галина Олегівна,https://itd.rada.gov.ua/mps/info/page/21236,25,0
Мережко Олександр Олександрович,https://itd.rada.gov.ua/mps/info/page/21232,27,0
Мельник Павло Вікторович,https://itd.rada.gov.ua/mps/info/page/21231,27,0
Медяник В'ячеслав Анатолійович,https://itd.rada.gov.ua/mps/info/page/21226,27,0
Марчук Ігор Петрович,https://itd.rada.gov.ua/mps/info/page/21221,27,0
Марченко Людмила Іванівна,https://itd.rada.gov.ua/mps/info/page/21220,21,0
Марусяк Олег Романович,https://itd.rada.gov.ua/mps/info/page/21219,27,0
Маріковський Олександр Валерійович,https://itd.rada.gov.ua/mps/info/page/21218,27,0
Макаренко Михайло Васильович,https://itd.rada.gov.ua/mps/info/page/21199,27,0
Мазурашу Георгій Георгійович,https://itd.rada.gov.ua/mps/info/page/21198,27,0
Ляшенко Анастасія Олексіївна,https://itd.rada.gov.ua/mps/info/page/21195,27,0
Любота Дмитро Валерійович,https://itd.rada.gov.ua/mps/info/page/21194,27,0
Лунченко Валерій Валерійович,https://itd.rada.gov.ua/mps/info/page/15662,27,0
Лукашев Олександр Анатолійович,https://itd.rada.gov.ua/mps/info/page/21193,27,0
Лубінець Дмитро Валерійович,https://itd.rada.gov.ua/mps/info/page/18116,27,0
Лозинський Роман Михайлович,https://itd.rada.gov.ua/mps/info/page/21192,27,0
Лічман Ганна Василівна,https://itd.rada.gov.ua/mps/info/page/21191,27,0
Літвінов Олександр Миколайович,https://itd.rada.gov.ua/mps/info/page/21190,27,0
Лис Олена Георгіївна,https://itd.rada.gov.ua/mps/info/page/21187,27,0
Лерос Гео Багратович,https://itd.rada.gov.ua/mps/info/page/21186,27,0
Леонов Олексій Олександрович,https://itd.rada.gov.ua/mps/info/page/21185,27,0
Лаба Михайло Михайлович,https://itd.rada.gov.ua/mps/info/page/21176,27,0
Кучер Олексій Володимирович,https://itd.rada.gov.ua/mps/info/page/21175,27,0
Куницький Олександр Олегович,https://itd.rada.gov.ua/mps/info/page/21174,27,0
Кунаєв Артем Юрійович,https://itd.rada.gov.ua/mps/info/page/21173,27,0
Культенко Артем Валерійович,https://itd.rada.gov.ua/mps/info/page/21172,27,0
Кулініч Олег Іванович,https://itd.rada.gov.ua/mps/info/page/15804,27,0
Кузбит Юрій Михайлович,https://itd.rada.gov.ua/mps/info/page/21168,27,0
Кубів Степан Іванович,https://itd.rada.gov.ua/mps/info/page/15649,27,0
Крячко Михайло Валерійович,https://itd.rada.gov.ua/mps/info/page/21166,27,0
Крулько Іван Іванович,https://itd.rada.gov.ua/mps/info/page/6073,27,0
Кривошеєв Ігор Сергійович,https://itd.rada.gov.ua/mps/info/page/21164,27,0
Криворучкіна Олена Володимирівна,https://itd.rada.gov.ua/mps/info/page/21163,27,0
Крейденко Володимир Вікторович,https://itd.rada.gov.ua/mps/info/page/21162,27,0
Кравчук Євгенія Михайлівна,https://itd.rada.gov.ua/mps/info/page/21159,27,0
Костюх Анатолій Вячеславович,https://itd.rada.gov.ua/mps/info/page/21158,27,0
Костюк Дмитро Сергійович,https://itd.rada.gov.ua/mps/info/page/21157,26,0
Костін Андрій Євгенович,https://itd.rada.gov.ua/mps/info/page/21156,27,0
Корявченков Юрій Валерійович,https://itd.rada.gov.ua/mps/info/page/21154,27,0
Копитін Ігор Володимирович,https://itd.rada.gov.ua/mps/info/page/21152,27,0
Копиленко Олександр Любимович,https://itd.rada.gov.ua/mps/info/page/129,5,0
Копанчук Олена Євгенівна,https://itd.rada.gov.ua/mps/info/page/21151,27,0
Констанкевич Ірина Мирославівна,https://itd.rada.gov.ua/mps/info/page/20103,27,0
Кондратюк Олена Костянтинівна,https://itd.rada.gov.ua/mps/info/page/11166,27,0
Колтунович Олександр Сергійович,https://itd.rada.gov.ua/mps/info/page/21149,27,0
Колісник Анна Сергіївна,https://itd.rada.gov.ua/mps/info/page/21144,27,0
Колєв Олег Вікторович,https://itd.rada.gov.ua/mps/info/page/21142,27,0
Козак Володимир Васильович,https://itd.rada.gov.ua/mps/info/page/16818,27,0
Ковальчук Олександр Володимирович,https://itd.rada.gov.ua/mps/info/page/14168,27,0
Ковальов Олександр Іванович,https://itd.rada.gov.ua/mps/info/page/21139,27,0
Ковальов Артем Володимирович,https://itd.rada.gov.ua/mps/info/page/21138,27,0
Коваль Ольга Володимирівна,https://itd.rada.gov.ua/mps/info/page/21137,27,0
Князевич Руслан Петрович,https://itd.rada.gov.ua/mps/info/page/1897,27,0
Клочко Андрій Андрійович,https://itd.rada.gov.ua/mps/info/page/21135,27,0
Климпуш-Цинцадзе Іванна Орестівна,https://itd.rada.gov.ua/mps/info/page/17997,27,0
Кіссе Антон Іванович,https://itd.rada.gov.ua/mps/info/page/7371,27,0
Кісєль Юрій Григорович,https://itd.rada.gov.ua/mps/info/page/21133,27,0
Кінзбурська Вікторія Олександрівна,https://itd.rada.gov.ua/mps/info/page/21132,27,0
Кисилевський Дмитро Давидович,https://itd.rada.gov.ua/mps/info/page/21130,27,0
Кириченко Микола Олександрович,https://itd.rada.gov.ua/mps/info/page/21129,27,0
Кириленко Іван Григорович,https://itd.rada.gov.ua/mps/info/page/1351,27,0
Касай Костянтин Іванович,https://itd.rada.gov.ua/mps/info/page/21126,22,0
Касай Геннадій Олександрович,https://itd.rada.gov.ua/mps/info/page/21125,27,0
Каптєлов Роман Володимирович,https://itd.rada.gov.ua/mps/info/page/21124,27,0
Камельчук Юрій Олександрович,https://itd.rada.gov.ua/mps/info/page/21122,27,0
Кальченко Сергій Віталійович,https://itd.rada.gov.ua/mps/info/page/21120,27,0
Кабаченко Володимир Вікторович,https://itd.rada.gov.ua/mps/info/page/21117,27,0
Іоффе Юлій Якович,https://itd.rada.gov.ua/mps/info/page/793,27,0
Іванісов Роман Валерійович,https://itd.rada.gov.ua/mps/info/page/21110,27,0
Зуєв Максим Сергійович,https://itd.rada.gov.ua/mps/info/page/21108,27,0
Здебський Юрій Вікторович,https://itd.rada.gov.ua/mps/info/page/21105,27,0
Захарченко Володимир Васильович,https://itd.rada.gov.ua/mps/info/page/21104,27,0
Заславський Юрій Іванович,https://itd.rada.gov.ua/mps/info/page/21103,23,0
Заремський Максим Валентинович,https://itd.rada.gov.ua/mps/info/page/21102,27,0
Задорожній Микола Миколайович,https://itd.rada.gov.ua/mps/info/page/21101,27,0
Задорожний Андрій Вікторович,https://itd.rada.gov.ua/mps/info/page/21050,27,0
Загородній Юрій Іванович,https://itd.rada.gov.ua/mps/info/page/21049,27,0
Жупанин Андрій Вікторович,https://itd.rada.gov.ua/mps/info/page/21044,27,0
Дунда Олег Андрійович,https://itd.rada.gov.ua/mps/info/page/21042,27,0
Дунаєв Сергій Володимирович,https://itd.rada.gov.ua/mps/info/page/15780,27,0
Дубневич Ярослав Васильович,https://itd.rada.gov.ua/mps/info/page/15790,27,0
Дмитрук Артем Геннадійович,https://itd.rada.gov.ua/mps/info/page/21038,27,0
Дмитрієва Оксана Олександрівна,https://itd.rada.gov.ua/mps/info/page/21037,23,0
Дирдін Максим Євгенович,https://itd.rada.gov.ua/mps/info/page/8358,27,0
Демченко Сергій Олексійович,https://itd.rada.gov.ua/mps/info/page/21035,27,0
Давиденко Валерій Миколайович,https://itd.rada.gov.ua/mps/info/page/18079,27,0
Гузь Ігор Володимирович,https://itd.rada.gov.ua/mps/info/page/14674,27,0
Гузенко Максим Васильович,https://itd.rada.gov.ua/mps/info/page/21032,24,0
Грищенко Тетяна Миколаївна,https://itd.rada.gov.ua/mps/info/page/21030,27,0
Гринчук Оксана Анатоліївна,https://itd.rada.gov.ua/mps/info/page/21029,27,0
Гривко Сергій Дмитрович,https://itd.rada.gov.ua/mps/info/page/21028,27,0
Горобець Олександр Сергійович,https://itd.rada.gov.ua/mps/info/page/14603,27,0
Горбенко Руслан Олександрович,https://itd.rada.gov.ua/mps/info/page/21025,27,0
Герега Олександр Володимирович,https://itd.rada.gov.ua/mps/info/page/15827,27,0
Герасимов Артур Володимирович,https://itd.rada.gov.ua/mps/info/page/17985,25,0
Герасименко Ігор Леонідович,https://itd.rada.gov.ua/mps/info/page/21020,27,0
Гевко Володимир Леонідович,https://itd.rada.gov.ua/mps/info/page/21019,27,0
Галайчук Вадим Сергійович,https://itd.rada.gov.ua/mps/info/page/21017,23,0
Гайду Олександр Васильович,https://itd.rada.gov.ua/mps/info/page/21016,27,0
Воронько Олег Євгенійович,https://itd.rada.gov.ua/mps/info/page/21015,27,0
Володіна Дар'я Артемівна,https://itd.rada.gov.ua/mps/info/page/21012,27,0
Власенко Сергій Володимирович,https://itd.rada.gov.ua/mps/info/page/12265,17,0
Верещук Ірина Андріївна,https://itd.rada.gov.ua/mps/info/page/21010,27,0
Веніславський Федір Володимирович,https://itd.rada.gov.ua/mps/info/page/21009,27,0
Венедіктова Ірина Валентинівна,https://itd.rada.gov.ua/mps/info/page/21008,27,0
Вельможний Сергій Анатолійович,https://itd.rada.gov.ua/mps/info/page/21007,27,0
Васильченко Галина Іванівна,https://itd.rada.gov.ua/mps/info/page/21004,27,0
Васильковський Ігор Ігорович,https://itd.rada.gov.ua/mps/info/page/21003,21,0
Васильєв Ігор Сергійович,https://itd.rada.gov.ua/mps/info/page/21002,27,0
Бунін Сергій Валерійович,https://itd.rada.gov.ua/mps/info/page/20996,27,0
Бужанський Максим Аркадійович,https://itd.rada.gov.ua/mps/info/page/20993,27,0
Борзова Ірина Наумівна,https://itd.rada.gov.ua/mps/info/page/20990,27,0
Бондар Михайло Леонтійович,https://itd.rada.gov.ua/mps/info/page/18066,27,0
Бойко Юрій Анатолійович,https://itd.rada.gov.ua/mps/info/page/11094,26,0
Бобровська Соломія Анатоліївна,https://itd.rada.gov.ua/mps/info/page/20984,27,0
Безугла Мар'яна Володимирівна,https://itd.rada.gov.ua/mps/info/page/20979,27,0
Батенко Тарас Іванович,https://itd.rada.gov.ua/mps/info/page/18063,27,0
Бардіна Марина Олегівна,https://itd.rada.gov.ua/mps/info/page/19958,27,0
Бакунець Павло Андрійович,https://itd.rada.gov.ua/mps/info/page/20977,27,0
Бакумов Олександр Сергійович,https://itd.rada.gov.ua/mps/info/page/20976,27,0
Бабій Роман Вячеславович,https://itd.rada.gov.ua/mps/info/page/20975,27,0
Бабак Сергій Віталійович,https://itd.rada.gov.ua/mps/info/page/20972,27,0
Арсенюк Олег Олексійович,https://itd.rada.gov.ua/mps/info/page/20971,27,0
Арешонков Володимир Юрійович,https://itd.rada.gov.ua/mps/info/page/18058,27,0
Андрійович Зіновій Мирославович,https://itd.rada.gov.ua/mps/info/page/20968,27,0
Ананченко Михайло Олегович,https://itd.rada.gov.ua/mps/info/page/20967,27,0
Алєксєєв Сергій Олегович,https://itd.rada.gov.ua/mps/info/page/17993,27,0
Рахманін Сергій Іванович,https://itd.rada.gov.ua/mps/info/page/21206,23,0
